{
  // Use IntelliSense to learn about possible attributes.
  // Hover to view descriptions of existing attributes.
  // For more information, visit: https://go.microsoft.com/fwlink/?linkid=830387
  "version": "0.2.0",
  "configurations": [
    {
      "type": "chrome",
      "request": "launch",
      "name": "kaksha-ui",
      "url": "http://teacher.localhost:4700",
      "runtimeExecutable": "/usr/bin/chromium",
      "runtimeArgs": ["--remote-debugging-port=9222", "--user-data-dir=/tmp/bb/kaksha-ui"],
      "webRoot": "${workspaceFolder}/packages/kaksha-ui",
      "sourceMapPathOverrides": {
          "webpack:/*": "${webRoot}/*",
          "/./*": "${webRoot}/*",
          "/src/*": "${webRoot}/*",
          "/*": "*",
          "/./~/*": "${webRoot}/node_modules/*"
      }
    },
    {
      "type": "node",
      "request": "attach",
      "name": "kaksha-server",
      "port": 9229
    }
  ]
}